<?xml version="1.0" standalone="no"?> 
<!DOCTYPE svg PUBLIC "-//W3C//DTD SVG 1.1//EN" "http://www.w3.org/Graphics/SVG/1.1/DTD/svg11.dtd" >
<svg xmlns="http://www.w3.org/2000/svg">
<defs>
  <font id="pastequefont" horiz-adv-x="1315.6748">
    <font-face font-family="pastequefont"
      units-per-em="1244.243" ascent="1244.243"
      descent="0" />
    <missing-glyph horiz-adv-x="0" />
    <glyph glyph-name="pasteque"
      unicode="&#xEA01;"
      horiz-adv-x="1734.870474787805" d=" M90.031508900249 1196.9671449280625A656.2619621580193 673.6463560362703 68.23353900000005 0 1 474.9795406211457 345.1989222340182A656.2619621580193 673.6463560362703 68.23353900000005 0 1 1340.6206713134427 697.6161399494201L90.031508900249 1196.9671449280625z M169.4233513012497 1165.2665764054564A560.3975529328028 575.2424476865502 68.23353900000001 0 1 498.1395601316721 437.921638462526A560.3975529328028 575.2424476865502 68.23353900000001 0 1 1237.3308570159652 738.8590008417038L169.4233513012497 1165.2665764054564z M245.0694039803602 1135.0616574136468A487.2754869898019 500.18340742220306 68.23353899999995 0 1 530.8938648101886 502.6224217267998A487.2754869898019 500.18340742220306 68.23353899999995 0 1 1173.633740054502 764.2927582840232L245.0694039803602 1135.0616574136468z M337.4977286445873 957.0117876194028C326.6055750625557 942.0705938599076 325.2294214517959 924.5246177197926 334.4240035252402 917.82175303049C343.6185855986846 911.1188883411874 359.9021021756485 917.7973736004084 370.7942557576801 932.7385673599038C381.6864093397116 947.679761119399 383.0625629504715 965.225737259514 373.8679808770272 971.9286019488165C364.6733988035828 978.6314666381192 348.3898822266189 971.9529813788982 337.4977286445873 957.0117876194028z M550.1476895843876 919.2941846580546C539.255536002356 904.3529908985593 537.8793823915963 886.8070147584441 547.0739644650406 880.1041500691415C556.268546538485 873.4012853798389 572.5520631154488 880.0797706390599 583.4442166974804 895.0209643985552C594.3363702795119 909.9621581580506 595.7125238902719 927.5081342981654 586.5179418168276 934.2109989874682C577.3233597433833 940.9138636767706 561.0398431664192 934.2353784175498 550.1476895843876 919.2941846580546z M401.415668029639 806.7919039825683C399.0626624090119 788.4522844492199 406.3042213734318 772.4112464294938 417.5901426799507 770.9632427661732C428.8760639864696 769.5152391028525 439.9325988321222 783.2085993256883 442.2856044527493 801.5482188590368C444.6386100733764 819.8878383923852 437.3970511089567 835.9288764121113 426.1111298024377 837.3768800754319C414.8252084959188 838.8248837387525 403.7686736502661 825.1315235159169 401.415668029639 806.7919039825683z M581.5964949106185 767.0907514084113C587.4879573587676 749.5645153493185 601.0072073440092 738.2957551286427 611.7925849033812 741.9212709933101C622.577962462753 745.5467868579776 626.5452645274928 762.6936697059375 620.6538020793437 780.2199057650303C614.7623396311945 797.7461418241231 601.2430896459531 809.014902044799 590.4577120865811 805.3893861801314C579.6723345272092 801.7638703154639 575.7050324624694 784.6169874675041 581.5964949106185 767.0907514084113z M721.6830735183798 732.5016946872238C722.6730315850335 714.0382642246321 732.6863633608021 699.5645547847628 744.0484760191528 700.1737598348834C755.4105886775035 700.7829648850042 763.8188813005354 716.2443908660335 762.8289232338815 734.7078213286251C761.8389651672278 753.1712517912168 751.8256333914591 767.6449612310861 740.4635207331085 767.0357561809653C729.1014080747578 766.4265511308447 720.6931154517259 750.9651251498153 721.6830735183798 732.5016946872238z M901.0678189623858 745.7412969241548C890.1756653803543 730.8001031646595 888.7995117695946 713.2541270245446 897.994093843039 706.5512623352419C907.1886759164832 699.8483976459391 923.4721924934472 706.5268829051602 934.3643460754786 721.4680766646554C945.2564996575102 736.4092704241507 946.6326532682702 753.9552465642657 937.4380711948259 760.6581112535684C928.2434891213813 767.3609759428712 911.9599725444174 760.6824906836501 901.0678189623858 745.7412969241548z M830.07837954011 584.4584981727285C837.271858652283 567.4252324911591 851.6006746085915 557.2056379992944 862.0826857389566 561.6323950011201C872.5646968693218 566.0591520029459 875.2305788000929 583.455937677866 868.0370996879199 600.4892033594354C860.843620575747 617.5224690410046 846.5148046194385 627.7420635328693 836.0327934890732 623.3153065310436C825.5507823587081 618.8885495292178 822.884900427937 601.4917638542977 830.07837954011 584.4584981727285z M540.6118226537054 642.753854120796C529.7196690716738 627.8126603613007 528.343515460914 610.2666842211856 537.5380975343584 603.5638195318829C546.7326796078029 596.8609548425803 563.0161961847667 603.5394401018013 573.9083497667983 618.4806338612966C584.8005033488298 633.421827620792 586.1766569595898 650.9678037609069 576.9820748861453 657.6706684502095C567.787492812701 664.3735331395122 551.503976235737 657.6950478802912 540.6118226537054 642.753854120796z" />
    <glyph glyph-name="lievre"
      unicode="&#xEA02;"
      horiz-adv-x="2323.979447975436" d=" M1247.9013206686434 1068.3423581770082C1300.4465581281793 1070.3727118282964 1330.104249534153 1027.4874222748292 1357.3117565238977 990.4287979283752C1382.1943774264846 956.1888978107233 1394.8206737745165 913.7475223373956 1430.2521772741493 888.1404492776312C1459.1009947396699 871.9088155543918 1497.5233205367103 871.5320743966431 1527.4444964289603 854.6173206923097C1578.4596622929193 830.2071883978945 1614.4549757283535 780.6305775317592 1638.5740904491174 730.4714107979925C1650.6562340537528 693.3681997734012 1628.40253482019 651.1901135162265 1587.5101070543512 647.8783973163135C1549.6992371031802 646.1250668798455 1514.628137160986 636.5292326642365 1477.4669309097958 620.14002896956C1449.850593372052 592.1548261690378 1435.888714471179 554.1121705815946 1442.715813609532 522.2053578962758C1467.1484019681184 488.45272182612 1511.439310958625 495.3413961433312 1547.9431077949457 487.2961368862381C1602.6412634531162 475.5568225279508 1656.1503542409075 471.5623117971491 1711.1460364768368 457.3750911740703C1743.415726141155 451.8850065694622 1788.0738080533717 472.5787578785942 1806.80340228299 432.2020385082017C1794.1197616087704 392.1171177919533 1676.0685577106171 407.2530257637169 1676.0685577106171 407.2530257637169C1690.556754683632 396.4939674240362 1758.1605731461332 373.5263606199503 1750.6413065109764 350.1699710005168C1733.8757391807892 322.0217176470988 1704.4270518967112 336.9798647166833 1661.1826605866272 349.5724444234378C1620.3234287417372 363.0737461936563 1605.8925760949103 370.7094589122984 1568.335296943772 386.890192223416C1530.4722247796578 401.4695803439786 1485.2983042919125 392.2642863748264 1449.3237545795814 408.6863735582547C1406.9127761554364 409.0573867923886 1367.1394414658196 429.5909515104322 1327.4111490846276 444.6652843033377C1294.65640843421 456.6346268667882 1261.6084371487445 468.63007053671 1228.43835694622 487.5822076167676C1185.5908847066185 511.8418517362149 1042.9829006515056 508.2327391386251 959.1624842652539 532.0310901369656C910.8910589027772 551.0672584600526 869.2674747055302 582.458297659884 818.855042621936 596.2559543871221C794.4760884571963 601.8975686073554 759.70668085539 592.6321965302901 739.5294190221972 583.5466031466771C699.0967222164792 560.4169221403116 657.5877615815672 530.3889985806968 607.9718753846465 536.0158373616059C553.5991959678734 530.8467768395853 494.5066619295582 544.2890419425477 443.470198604159 530.8061606539537C370.6670397325288 521.3876317102362 322.334390677416 461.922802163978 271.4955862797528 415.2557812239873C237.9104333942899 387.2915374166915 192.9737856332795 359.5502270000815 147.7794659266611 374.6106956142378C109.8672898355592 407.142047243682 182.4897717711703 427.441613264057 199.0464391235274 451.4189618753569C245.9397716273358 494.3525482393025 286.9589752661786 543.2546310097657 327.7300101054103 591.0476445703325C311.0773805054946 594.6251884980004 280.4431952852885 561.8382282772502 256.1480901114629 554.3628323297787C207.3096654011721 525.8118018021814 158.3854910707676 493.2386623663664 107.8096374210437 471.9257745865182C84.8889995905984 456.8932946900246 25.6604078394219 471.1369483787164 66.182082731291 500.2914937671715C121.8767669183371 561.733758761323 187.4190275638581 616.0414392630775 260.3977993663118 652.7153033587223C304.793828773156 669.2414044277901 364.1637114764966 653.5343964356244 413.7969506783681 660.4989006506894C461.6460588363344 655.1104866902422 517.2863602940613 678.9913067706262 524.8148501880387 730.8778330144717C535.9942990670136 770.0468717627374 547.0807798403196 808.355745618182 566.0811681678271 845.8984446001194C597.3556180860828 880.8366957684773 521.7130038075675 887.9458951448544 544.1008340887759 923.934699576181C564.0419687799567 962.9994640786427 611.3624416603191 932.946676123337 620.6770673714667 905.2593904408202C635.1757894041236 909.4611478624084 657.0596860783164 914.9330723455562 673.8339754740075 923.8733196674463C727.1514411808707 950.822809734365 775.9918185923938 941.4205533009164 831.4722263642172 942.4614732378062C871.9056391603871 933.9903298419518 911.3263810974944 927.3346127817522 953.1315014193028 917.0582621866922C1004.2135798454882 898.894690954272 1054.348142543728 876.4367391718124 1102.2661940732023 851.7312933610347C1144.9222365019991 830.6603452638665 1188.5841153355454 803.5423370806016 1233.4114964446012 782.3518836680175C1273.6650003672366 752.1773773358993 1334.0229954571416 752.8686335721279 1353.4189815272975 805.5089024916349C1366.623602890291 823.9064073316829 1371.9833121426236 841.0438991565788 1346.970185707679 850.8339620547589C1287.1936399547071 886.5243286477514 1227.065412709801 930.870238722967 1194.6696436359182 994.6034128028344C1184.498153097032 1025.2229397457902 1187.7977625493047 1074.9245234907917 1228.069882223688 1047.6508199292728C1243.935384465874 1042.0655736846113 1246.650680619406 1043.5959056403524 1247.8962436454392 1047.6312929169499C1249.2816851697448 1052.113458235494 1241.9645231121297 1064.5220934861673 1247.9015810288074 1068.3478908304996z" />
    <glyph glyph-name="tortue"
      unicode="&#xEA03;"
      horiz-adv-x="1959.8756321196456" d=" M802.5755051209686 1041.0939628353376C885.5466021348504 1022.6116812059082 956.7009920919452 967.0571959309524 1009.1631601285242 901.410682672251C1056.0741935604913 849.3845353419754 1097.3427701413843 784.2523698625662 1168.1018457346531 763.2108698006161C1218.613669653815 765.1628754013998 1175.6703178395644 706.6344535779251 1190.6208792188888 706.6610966504795C1229.1964286175726 713.9536438391809 1261.262760896133 739.3475775955584 1297.371185511749 753.3606469853773C1347.334245210457 779.1861510461839 1407.7730168731716 802.487980550773 1463.4601834626749 781.9025576729068C1492.0220319506016 762.1673395691174 1528.1452319004406 736.7953611286533 1518.5858280130178 696.158148227002C1508.8458564868795 650.3119476168389 1462.6235672489877 624.2698573314804 1419.4605435982194 615.1014954220843C1339.8341906170276 590.728602533067 1260.3487076898323 570.6137948187411 1182.0761076201277 543.420355899141C1155.997583378091 544.8505370454837 1130.2223391891187 519.2634558477591 1161.892467023478 508.8852373541469C1201.8045017743761 497.7728805673408 1213.9832341889694 473.5621009839335 1255.1499262362856 471.1913422361188C1285.7620451983819 463.7871196297169 1319.782459931934 452.0323028283292 1283.925453352873 413.1170987585948C1248.1706280008473 378.0913679109717 1226.172291535911 346.9175488936404 1189.9177750614326 371.3376160425256C1135.889184242464 404.83810515977 1096.780951408766 441.4092528929356 1042.6006315552274 474.6242042259212C1018.7661779543154 491.5677149032737 991.7115322345036 505.6322902774517 985.7837156152464 468.5349270266621C977.9732009870618 438.0956616733659 964.773665059875 416.9552440124218 988.3352793565432 392.7000790876541C1015.2873878171698 376.3999185052585 1027.6202821526906 344.7954786025645 1012.8421590113242 331.6999040631627C999.3835503563585 286.4823375524252 935.5863867618722 297.8801134461063 894.3502091066244 297.8768498180653C863.6262367107528 301.0925321963993 822.0290424554572 317.7654584397908 826.4593285133401 356.4441384845761C830.8505697121118 395.389961319206 842.2091227306072 432.6988076670649 855.8913195757407 469.4843460931913C779.86813062941 497.9341631312675 696.9521592600786 481.090816165434 617.4091178019747 486.8112440573465C584.4822024121667 482.8602366119859 583.2751347464583 471.3013561704529 593.7773058330752 440.5270645640553C582.8445138610957 378.9342740259746 676.2186863465255 404.0850971626292 665.7308692894208 353.4400578806949C649.1467730674411 304.6390871194185 588.42579252107 307.0021318373178 539.2600371528257 315.0850703989044C498.0924846944803 313.3048503104708 472.9307076353458 349.5874339861033 470.5201207576902 387.4681273054711C457.9968441638538 426.1046768791791 470.0878977276528 512.722492527599 407.417807308651 498.8829294721884C370.1606627628338 450.8126553599894 341.5110879531598 380.9893509341686 275.8555848826722 366.8877482163959C225.2639088861462 371.1509365185695 204.358650460243 424.5648971693439 215.3894580831033 470.7304586180107C219.2579135406292 507.9243659201278 256.4455724785148 522.3590367141773 286.1211785395176 535.8843420585669C318.5948353330956 555.4683058373198 288.0406071985811 581.7292372175134 262.6230566429236 586.9156168845033C225.4837350032627 606.1158373443035 184.203688253272 609.4944637699306 144.7764150100052 618.4244621549361C111.6955453846902 628.757820597655 73.4501624002613 635.8901533188795 47.8169904671782 662.3350939819047C57.2613425653451 678.6565571546056 92.7184918103467 652.788032542347 111.0578146638334 653.5102437585173C130.9653048572446 647.4587059671527 214.6193012040733 625.0350297604114 190.2298528200835 662.572448748537C147.8945505131224 680.6069012720229 191.6853359845492 708.5109210242283 203.6997358264644 730.6932667719964C274.2039932761458 819.2837378858972 297.4619299505154 903.3541553691746 393.1910355546948 969.9697288013438C428.1842784686351 996.3066137068598 493.1142651578269 1035.4407063423823 535.4623608867095 1044.5949456431638C625.4018615522414 1056.3305960471462 718.6217000345376 1059.319129913813 802.5755051209687 1041.0939628353378z" />
    <glyph glyph-name="product"
      unicode="&#xEA04;"
      horiz-adv-x="1315.6748" d=" M202.26908 925.15241L204.87254 350.9182799999999C204.87254 343.5606599999999 208.94754 336.7690099999999 215.5128 333.2599899999999L674.1756600000001 93.1750999999999C677.1187100000001 91.5903999999998 680.4013400000001 90.798 683.6839700000002 90.798C683.6839700000002 90.798 683.6839700000002 90.798 683.6839700000002 90.798C685.0423000000002 89.2132999999999 686.6270200000001 87.7418 688.4381200000001 86.6098999999999C691.6075600000001 84.6854999999998 695.2297800000001 83.78 698.7388000000001 83.78C702.0214300000001 83.78 705.30406 84.5724 708.2471100000001 86.1570999999999L1161.0239 331.78847C1167.4759 335.29749 1171.5509 342.08914 1171.5509 349.44676L1171.5509 946.88569C1171.5509 946.99889 1171.4377 947.2252799999998 1171.4377 947.45167C1171.4377 947.56486 1171.4377 947.79125 1171.4377 947.90444C1171.4377 948.47041 1171.2113 949.03638 1171.0982 949.60236C1170.8718 950.7343 1170.7586 951.75304 1170.4189999999999 952.88499C1170.1925999999999 953.56415 1169.8529999999998 954.24332 1169.5133999999998 955.03568C1169.0606999999998 955.94123 1168.7210999999998 956.95998 1168.1550999999997 957.75234C1167.7022999999997 958.4315 1167.2494999999997 958.99747 1166.6835999999996 959.67664C1166.0043999999996 960.469 1165.4383999999995 961.14816 1164.6460999999997 961.82733C1164.0800999999997 962.3933 1163.4008999999996 962.84608 1162.7217999999998 963.29885C1162.2689999999998 963.63843 1161.9293999999998 963.97802 1161.4765999999997 964.3176C1161.0238999999997 964.5439899999998 1160.5710999999997 964.65718 1160.1182999999996 964.88357C1159.7786999999996 965.10996 1159.4390999999996 965.33635 1158.9863999999995 965.56274L692.7395 1191.498339C687.30618 1193.762223 681.0805 1193.535835 675.87357 1190.932368L214.60725 950.50791C207.81559 947.1120799999998 203.62741 940.20724 203.51421 932.62323C203.51421 932.51003 203.51421 932.3968399999998 203.51421 932.2836399999998C202.83505 930.01976 202.15588 927.64268 202.26908 925.15241zM1105.1059 944.7350099999998L698.51241 717.44107L268.0349 932.2836399999998L685.60827 1150.748431L1105.1059 944.7350099999998zM718.88736 137.7736L718.88736 682.69046L1131.4802 913.26702L1131.4802 361.6717300000001L718.88736 137.7736z" />
    <glyph glyph-name="category"
      unicode="&#xEA05;"
      horiz-adv-x="1315.6748" d=" M275.71345 1192.858018L275.71345 865.71349L440.5943100000001 865.71349L440.5943100000001 224.733L539.59041 224.733L539.59041 224.8502L692.0572 224.8502L692.0572 61.5201L1030.6295 61.5201L1030.6295 388.66271L692.0572 388.66271L692.0572 323.8463L539.59041 323.8463L539.59041 611.97911L685.65095 611.97911L685.65095 469.6216899999999L1024.2212 469.6216899999999L1024.2212 796.7642699999999L685.65095 796.7642699999999L685.65095 710.97326L539.59041 710.97326L539.59041 865.71349L614.2857200000001 865.71349L614.2857200000001 1192.858018L275.7134500000001 1192.858018z" />
  </font>
</defs>
</svg>
